# This is a comment. This will be ignored :3
Real WorldMap
0 0 0 0 1 0 0 0 1 0 0 0
0 8 0 0 1 0 7 0 1 0 0 0
0 B 0 0 1 1 1 1 1 0 0 0
T T T 0 0 0 0 0 0 0 0 1
1 1 1 0 0 0 0 0 0 0 0 1
1 0 0 0 0 0 0 0 0 0 0 1
1 0 0 A 0 0 0 0 0 0 0 1
1 1 1 1 1 1 1 1 1 1 1 1
#
Imag WorldMap
0 0 0 0 0 0 0 0 0 0 0 0
0 0 0 0 0 0 7 0 0 0 0 0
0 B 0 0 0 1 1 0 0 0 0 8
0 0 0 0 0 0 0 0 0 0 0 1
1 1 1 0 0 0 0 8 0 0 0 1
1 1 1 0 0 0 0 0 0 0 T 1
1 1 1 A 0 0 0 0 0 0 1 1
1 1 1 1 1 T T T T 1 1 1
End