# This is a comment. This will be ignored :3
Real WorldMap
1 1 1 1 1 1 1 1 1 1 1 1
S S S S S S S S S S S S
0 0 0 0 0 0 0 0 0 0 0 0
0 0 0 0 0 0 0 0 0 0 0 0
0 0 0 0 0 0 0 0 0 0 0 0
7 0 0 0 0 0 0 0 0 0 0 8
1 1 T T A T T A T T 1 1
1 1 1 1 1 1 1 1 1 1 1 1
#
Imag WorldMap
1 1 1 1 1 1 1 1 1 1 1 1
S S S S S S S S S S S S
0 0 0 0 8 0 0 8 0 0 0 0
0 0 0 0 0 0 0 0 0 0 0 0
0 0 0 0 0 0 0 0 0 0 0 0
7 0 0 0 0 0 0 0 0 0 0 0
1 1 T T A T T A T T 1 1
1 1 1 1 1 1 1 1 1 1 1 1
End