# Juch's attempt on level design :3
Real WorldMap
1 1 1 1 1 1 1 1 1 1 1 1
1 0 0 0 V S 0 0 0 0 0 1
1 0 0 0 8 0 0 0 0 0 0 1
7 0 0 0 0 0 0 0 0 0 0 8
1 1 0 0 0 0 0 0 0 0 1 1
1 1 0 0 0 0 0 1 1 0 1 1
1 1 T T T T T T T T 1 1
1 1 1 1 1 1 1 1 1 1 1 1
#
Imag WorldMap
1 1 1 1 1 1 1 1 1 1 1 1
1 0 0 0 V S 0 0 0 0 0 1
1 0 0 0 0 0 0 0 0 0 0 1
7 0 0 1 1 0 0 0 0 8 0 0
1 1 0 0 0 0 0 0 0 0 1 1
1 1 0 0 0 0 0 0 0 0 1 1
1 1 T T T T T T T T 1 1
1 1 1 1 1 1 1 1 1 1 1 1
End