# This is a comment. This will be ignored :3
Real WorldMap
1 1 0 0 0 0 0 0 0 0 1 1
1 1 7 0 0 0 0 0 0 0 1 1
1 1 1 1 1 1 1 1 1 1 1 1
0 0 0 0 0 0 0 0 0 0 0 0
0 0 0 0 0 8 0 0 0 0 0 0
0 T T T 0 0 0 0 T T T 0
1 1 1 1 1 1 1 1 1 1 1 1
1 1 1 1 1 1 1 1 1 1 1 1
#
Imag WorldMap
1 1 0 0 0 0 0 0 0 0 1 1
1 1 7 0 0 0 0 0 0 0 1 1
1 1 1 1 0 0 0 0 0 1 1 1
0 0 0 0 0 0 0 0 0 0 0 0
0 0 8 0 0 0 0 0 0 8 0 0
0 0 0 0 T T T T 0 0 0 0
1 1 1 1 1 1 1 1 1 1 1 1
1 1 1 1 1 1 1 1 1 1 1 1
End