# READ "_README.txt" FIRST BEFORE PLOTTING!
Real WorldMap
0 0 0 0 0 0 0 0 0 0 0 0
1 0 0 0 0 F F F 0 8 0 1
1 0 0 0 E 0 0 E 0 0 0 1
1 0 0 1 1 8 0 1 1 0 0 1
1 0 0 0 1 0 0 1 0 0 0 1
1 0 0 0 0 0 0 0 0 0 0 1
1 0 I 1 0 7 0 0 1 I 0 1
1 1 1 1 1 1 1 1 1 1 1 1
#
Imag WorldMap
0 0 0 0 0 0 0 0 0 0 0 0
1 0 0 B U 0 0 U B 0 0 1
1 0 0 0 0 0 0 0 0 0 0 1
1 1 0 0 0 1 1 0 0 0 1 1
1 0 0 1 0 0 8 0 1 0 0 1
1 0 0 1 1 1 1 1 1 0 0 1
1 0 0 1 0 0 0 0 1 0 0 1
1 1 1 1 1 1 1 1 1 1 1 1
End