# READ "_README.txt" FIRST BEFORE PLOTTING!
Real WorldMap
0 0 0 0 0 0 0 0 0 0 0 0
0 0 0 0 0 0 F 0 0 0 0 0
0 0 0 0 0 0 0 8 0 0 0 0
1 1 1 1 1 1 1 1 1 1 1 1
0 0 0 0 0 0 F 0 0 0 0 0
7 0 F 0 0 0 0 0 E 0 8 0
1 1 1 1 1 1 1 1 1 1 1 1
1 1 1 1 1 1 1 1 1 1 1 1
#
Imag WorldMap
0 0 0 0 0 0 0 0 0 0 0 0
0 0 0 0 0 0 F 0 0 0 0 0
0 0 0 0 0 0 0 0 0 0 0 0
1 1 1 1 1 1 0 1 1 1 1 1
0 0 0 8 0 0 F 0 0 0 0 0
7 0 F 0 0 0 0 0 E 0 0 0
1 1 1 1 1 1 1 1 1 1 1 1
1 1 1 1 1 1 1 1 1 1 1 1
End