# READ "_README.txt" FIRST BEFORE PLOTTING!
Real WorldMap
0 0 0 0 0 0 0 0 0 0 0 8
1 1 1 1 1 1 1 1 1 1 1 1
1 1 1 1 0 0 0 0 0 1 1 1
0 0 0 0 0 0 0 0 0 0 0 0
0 0 0 0 R R 0 R R 0 0 0
0 7 0 0 0 0 8 0 0 0 0 A
0 0 0 0 0 0 0 0 0 0 1 1
0 1 1 0 R R 0 R R 0 0 0
#
Imag WorldMap
0 0 0 0 0 0 0 0 0 0 0 0
1 1 1 1 1 1 1 1 1 1 1 0
1 1 1 1 8 0 0 0 0 1 1 0
0 0 0 0 0 0 0 0 0 0 0 0
0 0 0 0 R R 0 R R 0 0 0
0 7 0 0 0 0 0 0 0 0 0 A
0 0 0 0 0 0 0 0 0 0 1 1
0 1 1 0 R R 0 R R 0 0 0
End