# This is a comment. This will be ignored :3
Real WorldMap
0 0 0 0 0 0 0 0 0 0 0 0
7 0 0 B 0 0 0 0 1 1 1 1
1 1 1 0 0 0 0 0 1 1 0 1
1 1 0 0 0 8 0 1 1 1 0 1
1 1 0 0 0 L 0 1 0 0 0 1
1 1 1 2 2 2 2 1 1 1 0 1
1 1 1 2 2 2 2 1 1 1 0 1
1 1 1 2 2 2 2 1 1 1 1 1
#
Imag WorldMap
0 0 0 0 0 0 0 0 0 0 0 8
7 0 0 B 0 0 0 0 1 1 0 1
1 0 0 0 0 0 0 0 1 1 0 1
0 0 0 0 0 0 0 1 1 1 0 1
0 0 0 0 0 L 0 1 8 1 0 1
1 1 1 2 2 2 2 1 0 1 0 1
1 1 1 2 2 2 2 1 1 1 0 1
1 1 1 2 2 2 2 1 1 1 1 1
End