# READ "_README.txt" FIRST BEFORE PLOTTING!
Real WorldMap
0 0 0 0 1 0 0 1 0 0 0 0
0 0 0 0 1 7 0 1 0 8 0 0
0 0 0 0 1 1 1 1 0 0 0 0
0 0 0 0 0 0 0 0 0 0 0 0
8 0 0 0 0 0 0 0 U 0 0 0
0 0 0 0 U 0 0 0 0 0 0 0
0 0 0 0 0 0 0 0 0 0 L 0
2 2 2 2 2 2 2 2 2 2 2 2
#
Imag WorldMap
0 0 0 0 0 0 0 0 0 0 0 0
0 0 0 0 0 7 0 0 0 0 0 0
0 0 0 0 0 1 1 0 0 0 0 0
0 0 0 0 0 0 0 0 0 0 0 0
0 0 0 0 0 0 0 0 U 0 0 0
0 0 0 0 U 0 8 0 0 0 0 0
0 0 0 0 0 0 0 0 0 0 L 0
2 2 2 2 2 2 2 2 2 2 2 2
End 