# READ "_README.txt" FIRST BEFORE PLOTTING!
Real WorldMap
0 0 0 0 0 0 0 0 1 0 0 0
0 0 0 0 0 0 0 0 1 0 8 0
1 1 0 0 0 0 0 0 1 0 0 0
7 1 0 0 0 0 1 1 1 0 L 0
1 1 0 0 0 B 0 8 1 0 0 0
0 0 0 0 0 0 1 1 1 1 1 1
0 0 0 0 0 0 0 0 0 0 0 0
0 0 0 0 0 0 0 0 0 0 0 0
#
Imag WorldMap
0 0 0 0 0 0 0 0 1 0 0 0
0 0 0 0 0 0 0 0 1 0 0 0
0 1 0 0 0 0 0 0 1 0 0 0
7 1 2 2 1 0 1 2 1 0 L 0
1 1 2 2 1 B 1 2 1 2 2 2
2 3 2 2 1 0 1 2 1 2 2 2
2 2 2 2 2 2 2 2 2 2 2 2
1 1 1 1 1 1 1 1 1 1 1 1
End