# This is a comment. This will be ignored :3
Real WorldMap
0 0 0 0 0 0 0 0 0 0 0 0
0 0 0 0 0 0 0 0 0 0 0 0
0 0 0 0 0 0 0 0 0 0 0 0
0 0 0 0 0 0 8 0 0 0 0 0
7 0 0 0 0 0 0 0 0 8 0 0
1 R R R 0 0 0 R R R 1 1
1 1 1 1 2 2 2 1 1 1 1 1
1 1 1 1 2 2 2 1 1 1 1 1
#
Imag WorldMap
0 0 0 0 0 0 0 0 0 0 0 0
0 0 0 0 0 0 0 0 0 0 0 0
0 0 0 0 0 0 0 0 0 0 0 0
0 0 0 0 0 0 0 0 0 0 0 0
7 8 0 0 0 0 0 0 0 0 0 0
1 R R R 0 0 0 R R R 1 1
1 1 1 1 2 2 2 1 1 1 1 1
1 1 1 1 2 2 2 1 1 1 1 1
End