# Juch's attempt on level design
Real WorldMap
7 0 0 0 0 0 0 0 0 0 0 0
1 1 0 0 0 0 0 0 0 0 0 0
8 0 0 0 0 0 0 0 0 0 0 0
1 0 0 0 8 0 0 0 0 0 0 0
0 0 0 0 0 0 0 R R R 1 1
1 0 0 0 0 L 0 0 0 0 0 0
1 1 2 2 2 2 2 2 2 1 1 1
1 1 2 2 2 2 2 2 2 2 2 1
#
Imag WorldMap
7 0 0 0 0 0 0 0 0 0 0 1
1 0 0 0 0 0 0 0 0 8 0 1
0 0 0 0 0 0 0 0 0 1 1 1
0 0 0 0 0 0 0 0 0 0 0 0
0 0 0 0 0 0 0 0 1 0 0 0
1 0 0 0 0 L 0 0 0 0 0 0
1 1 2 2 2 2 2 2 2 1 1 1
1 1 2 2 2 2 2 2 2 2 2 1
End