# This is a comment. This will be ignored :3
Real WorldMap
0 0 0 0 0 0 0 0 0 0 0 0
0 0 0 0 0 0 0 0 0 0 0 0
0 0 0 0 0 0 0 0 0 0 0 0
7 0 0 0 0 8 0 0 0 0 0 0
1 1 1 1 0 0 0 0 0 0 0 0
1 1 1 1 R R R 0 0 0 0 L
1 1 1 1 1 1 1 2 2 2 2 2
1 1 1 1 1 1 1 2 2 2 2 2
#
Imag WorldMap
0 0 0 0 0 0 0 0 0 0 0 0
0 0 0 0 0 0 0 0 0 0 0 0
0 8 0 0 0 0 0 0 0 0 0 8
7 0 0 0 0 0 0 0 0 0 0 0
1 1 1 1 0 0 0 0 0 0 0 0
1 1 1 1 R R R 0 0 0 0 L
1 1 1 1 1 1 1 2 2 2 2 2
1 1 1 1 1 1 1 2 2 2 2 2
End