# Juch's attempt on level design
Real WorldMap
0 0 0 0 0 0 0 0 0 0 0 0
0 8 0 0 0 0 0 0 0 0 0 0
0 0 0 0 1 1 1 0 0 0 0 0
0 0 0 0 0 0 0 0 0 1 1 1
7 0 0 0 0 0 0 0 0 0 0 0
1 R R 2 2 2 2 1 1 2 2 2
1 1 1 2 2 2 2 1 1 2 2 2
1 1 1 2 2 2 2 1 1 2 2 2
#
Imag WorldMap
0 0 0 0 0 0 0 0 0 0 0 0
0 0 0 0 0 0 0 0 0 0 0 0
0 0 0 0 1 1 1 0 0 8 0 0
0 0 0 0 0 0 0 0 0 0 1 1
7 8 0 0 0 0 0 5 6 0 0 0
1 1 6 2 2 2 2 1 1 2 2 2
1 1 1 2 2 2 2 1 1 2 2 2
1 1 1 2 2 2 2 1 1 2 2 2
End